#DSID, gHHH, gHHWW, xsec,  Filename, Nsample, comment
7680, 0.7, 1.025, 0.67, /home/ulrike/Work/CLIC/Projects/HiggsSelf/CodeRosa/NtupleForMVAProcessor/files_root/anaChain_CLIC_ILD_files_v6_BDT2018_5/3000GeV/anaChain_CLIC_ILD_4jets_7680.root, 21780.0, 
7169, 0.2, 0.8, 2.21, /home/ulrike/Work/CLIC/Projects/HiggsSelf/CodeRosa/NtupleForMVAProcessor/files_root/anaChain_CLIC_ILD_files_v6_BDT2018_5/3000GeV/anaChain_CLIC_ILD_4jets_7169.root, 21780.0, 
7682, 0.7, 1.075, 0.568, /home/ulrike/Work/CLIC/Projects/HiggsSelf/CodeRosa/NtupleForMVAProcessor/files_root/anaChain_CLIC_ILD_files_v6_BDT2018_5/3000GeV/anaChain_CLIC_ILD_4jets_7682.root, 21780.0, 
7171, 0.2, 1.0, 1.11, /home/ulrike/Work/CLIC/Projects/HiggsSelf/CodeRosa/NtupleForMVAProcessor/files_root/anaChain_CLIC_ILD_files_v6_BDT2018_5/3000GeV/anaChain_CLIC_ILD_4jets_7171.root, 21780.0, 
7684, 0.7, 1.125, 0.508, /home/ulrike/Work/CLIC/Projects/HiggsSelf/CodeRosa/NtupleForMVAProcessor/files_root/anaChain_CLIC_ILD_files_v6_BDT2018_5/3000GeV/anaChain_CLIC_ILD_4jets_7684.root, 21780.0, 
7173, 0.2, 1.2, 0.662, /home/ulrike/Work/CLIC/Projects/HiggsSelf/CodeRosa/NtupleForMVAProcessor/files_root/anaChain_CLIC_ILD_files_v6_BDT2018_5/3000GeV/anaChain_CLIC_ILD_4jets_7173.root, 21780.0, 
7686, 0.7, 1.175, 0.489, /home/ulrike/Work/CLIC/Projects/HiggsSelf/CodeRosa/NtupleForMVAProcessor/files_root/anaChain_CLIC_ILD_files_v6_BDT2018_5/3000GeV/anaChain_CLIC_ILD_4jets_7686.root, 21780.0, 
7175, 0.2, 1.4, 0.866, /home/ulrike/Work/CLIC/Projects/HiggsSelf/CodeRosa/NtupleForMVAProcessor/files_root/anaChain_CLIC_ILD_files_v6_BDT2018_5/3000GeV/anaChain_CLIC_ILD_4jets_7175.root, 21780.0, 
7688, 0.9, 0.825, 1.31, /home/ulrike/Work/CLIC/Projects/HiggsSelf/CodeRosa/NtupleForMVAProcessor/files_root/anaChain_CLIC_ILD_files_v6_BDT2018_5/3000GeV/anaChain_CLIC_ILD_4jets_7688.root, 21780.0, 
7177, 1.0, 0.6, 2.78, /home/ulrike/Work/CLIC/Projects/HiggsSelf/CodeRosa/NtupleForMVAProcessor/files_root/anaChain_CLIC_ILD_files_v6_BDT2018_5/3000GeV/anaChain_CLIC_ILD_4jets_7177.root, 21780.0, 
7690, 0.9, 0.875, 1.06, /home/ulrike/Work/CLIC/Projects/HiggsSelf/CodeRosa/NtupleForMVAProcessor/files_root/anaChain_CLIC_ILD_files_v6_BDT2018_5/3000GeV/anaChain_CLIC_ILD_4jets_7690.root, 21780.0, 
7179, 1.0, 0.8, 1.36, /home/ulrike/Work/CLIC/Projects/HiggsSelf/CodeRosa/NtupleForMVAProcessor/files_root/anaChain_CLIC_ILD_files_v6_BDT2018_5/3000GeV/anaChain_CLIC_ILD_4jets_7179.root, 21780.0, 
7692, 0.9, 0.925, 0.858, /home/ulrike/Work/CLIC/Projects/HiggsSelf/CodeRosa/NtupleForMVAProcessor/files_root/anaChain_CLIC_ILD_files_v6_BDT2018_5/3000GeV/anaChain_CLIC_ILD_4jets_7692.root, 21780.0, 
7181, 1.0, 1.0, 0.589, /home/ulrike/Work/CLIC/Projects/HiggsSelf/CodeRosa/NtupleForMVAProcessor/files_root/anaChain_CLIC_ILD_files_v6_BDT2018_5/3000GeV/anaChain_CLIC_ILD_4jets_7181.root, 21780.0, 
7694, 0.9, 0.975, 0.696, /home/ulrike/Work/CLIC/Projects/HiggsSelf/CodeRosa/NtupleForMVAProcessor/files_root/anaChain_CLIC_ILD_files_v6_BDT2018_5/3000GeV/anaChain_CLIC_ILD_4jets_7694.root, 21780.0, 
7183, 1.0, 1.2, 0.471, /home/ulrike/Work/CLIC/Projects/HiggsSelf/CodeRosa/NtupleForMVAProcessor/files_root/anaChain_CLIC_ILD_files_v6_BDT2018_5/3000GeV/anaChain_CLIC_ILD_4jets_7183.root, 21780.0, 
7696, 0.9, 1.025, 0.576, /home/ulrike/Work/CLIC/Projects/HiggsSelf/CodeRosa/NtupleForMVAProcessor/files_root/anaChain_CLIC_ILD_files_v6_BDT2018_5/3000GeV/anaChain_CLIC_ILD_4jets_7696.root, 21780.0, 
7185, 1.0, 1.4, 1.01, /home/ulrike/Work/CLIC/Projects/HiggsSelf/CodeRosa/NtupleForMVAProcessor/files_root/anaChain_CLIC_ILD_files_v6_BDT2018_5/3000GeV/anaChain_CLIC_ILD_4jets_7185.root, 21780.0, 
7698, 0.9, 1.075, 0.494, /home/ulrike/Work/CLIC/Projects/HiggsSelf/CodeRosa/NtupleForMVAProcessor/files_root/anaChain_CLIC_ILD_files_v6_BDT2018_5/3000GeV/anaChain_CLIC_ILD_4jets_7698.root, 21780.0, 
7187, 1.8, 0.6, 2.0, /home/ulrike/Work/CLIC/Projects/HiggsSelf/CodeRosa/NtupleForMVAProcessor/files_root/anaChain_CLIC_ILD_files_v6_BDT2018_5/3000GeV/anaChain_CLIC_ILD_4jets_7187.root, 21780.0, 
7700, 0.9, 1.125, 0.455, /home/ulrike/Work/CLIC/Projects/HiggsSelf/CodeRosa/NtupleForMVAProcessor/files_root/anaChain_CLIC_ILD_files_v6_BDT2018_5/3000GeV/anaChain_CLIC_ILD_4jets_7700.root, 21780.0, 
7189, 1.8, 0.8, 0.908, /home/ulrike/Work/CLIC/Projects/HiggsSelf/CodeRosa/NtupleForMVAProcessor/files_root/anaChain_CLIC_ILD_files_v6_BDT2018_5/3000GeV/anaChain_CLIC_ILD_4jets_7189.root, 21780.0, 
7702, 0.9, 1.175, 0.457, /home/ulrike/Work/CLIC/Projects/HiggsSelf/CodeRosa/NtupleForMVAProcessor/files_root/anaChain_CLIC_ILD_files_v6_BDT2018_5/3000GeV/anaChain_CLIC_ILD_4jets_7702.root, 21780.0, 
7191, 1.8, 1.0, 0.47, /home/ulrike/Work/CLIC/Projects/HiggsSelf/CodeRosa/NtupleForMVAProcessor/files_root/anaChain_CLIC_ILD_files_v6_BDT2018_5/3000GeV/anaChain_CLIC_ILD_4jets_7191.root, 21780.0, 
7704, 1.1, 0.825, 1.15, /home/ulrike/Work/CLIC/Projects/HiggsSelf/CodeRosa/NtupleForMVAProcessor/files_root/anaChain_CLIC_ILD_files_v6_BDT2018_5/3000GeV/anaChain_CLIC_ILD_4jets_7704.root, 21780.0, 
7193, 1.8, 1.2, 0.681, /home/ulrike/Work/CLIC/Projects/HiggsSelf/CodeRosa/NtupleForMVAProcessor/files_root/anaChain_CLIC_ILD_files_v6_BDT2018_5/3000GeV/anaChain_CLIC_ILD_4jets_7193.root, 21780.0, 
7706, 1.1, 0.875, 0.931, /home/ulrike/Work/CLIC/Projects/HiggsSelf/CodeRosa/NtupleForMVAProcessor/files_root/anaChain_CLIC_ILD_files_v6_BDT2018_5/3000GeV/anaChain_CLIC_ILD_4jets_7706.root, 21780.0, 
7195, 1.8, 1.4, 1.56, /home/ulrike/Work/CLIC/Projects/HiggsSelf/CodeRosa/NtupleForMVAProcessor/files_root/anaChain_CLIC_ILD_files_v6_BDT2018_5/3000GeV/anaChain_CLIC_ILD_4jets_7195.root, 21780.0, 
7708, 1.1, 0.925, 0.748, /home/ulrike/Work/CLIC/Projects/HiggsSelf/CodeRosa/NtupleForMVAProcessor/files_root/anaChain_CLIC_ILD_files_v6_BDT2018_5/3000GeV/anaChain_CLIC_ILD_4jets_7708.root, 21780.0, 
7197, 2.6, 0.6, 1.62, /home/ulrike/Work/CLIC/Projects/HiggsSelf/CodeRosa/NtupleForMVAProcessor/files_root/anaChain_CLIC_ILD_files_v6_BDT2018_5/3000GeV/anaChain_CLIC_ILD_4jets_7197.root, 21780.0, 
7710, 1.1, 0.975, 0.605, /home/ulrike/Work/CLIC/Projects/HiggsSelf/CodeRosa/NtupleForMVAProcessor/files_root/anaChain_CLIC_ILD_files_v6_BDT2018_5/3000GeV/anaChain_CLIC_ILD_4jets_7710.root, 21780.0, 
7199, 2.6, 0.8, 0.857, /home/ulrike/Work/CLIC/Projects/HiggsSelf/CodeRosa/NtupleForMVAProcessor/files_root/anaChain_CLIC_ILD_files_v6_BDT2018_5/3000GeV/anaChain_CLIC_ILD_4jets_7199.root, 21780.0, 
7712, 1.1, 1.025, 0.506, /home/ulrike/Work/CLIC/Projects/HiggsSelf/CodeRosa/NtupleForMVAProcessor/files_root/anaChain_CLIC_ILD_files_v6_BDT2018_5/3000GeV/anaChain_CLIC_ILD_4jets_7712.root, 21780.0, 
7201, 2.6, 1.0, 0.753, /home/ulrike/Work/CLIC/Projects/HiggsSelf/CodeRosa/NtupleForMVAProcessor/files_root/anaChain_CLIC_ILD_files_v6_BDT2018_5/3000GeV/anaChain_CLIC_ILD_4jets_7201.root, 21780.0, 
7714, 1.1, 1.075, 0.446, /home/ulrike/Work/CLIC/Projects/HiggsSelf/CodeRosa/NtupleForMVAProcessor/files_root/anaChain_CLIC_ILD_files_v6_BDT2018_5/3000GeV/anaChain_CLIC_ILD_4jets_7714.root, 21780.0, 
7203, 2.6, 1.2, 1.3, /home/ulrike/Work/CLIC/Projects/HiggsSelf/CodeRosa/NtupleForMVAProcessor/files_root/anaChain_CLIC_ILD_files_v6_BDT2018_5/3000GeV/anaChain_CLIC_ILD_4jets_7203.root, 21780.0, 
7716, 1.1, 1.125, 0.427, /home/ulrike/Work/CLIC/Projects/HiggsSelf/CodeRosa/NtupleForMVAProcessor/files_root/anaChain_CLIC_ILD_files_v6_BDT2018_5/3000GeV/anaChain_CLIC_ILD_4jets_7716.root, 21780.0, 
7205, 2.6, 1.4, 2.5, /home/ulrike/Work/CLIC/Projects/HiggsSelf/CodeRosa/NtupleForMVAProcessor/files_root/anaChain_CLIC_ILD_files_v6_BDT2018_5/3000GeV/anaChain_CLIC_ILD_4jets_7205.root, 21780.0, 
7718, 1.1, 1.175, 0.449, /home/ulrike/Work/CLIC/Projects/HiggsSelf/CodeRosa/NtupleForMVAProcessor/files_root/anaChain_CLIC_ILD_files_v6_BDT2018_5/3000GeV/anaChain_CLIC_ILD_4jets_7718.root, 21780.0, 
7720, 1.3, 0.825, 1.03, /home/ulrike/Work/CLIC/Projects/HiggsSelf/CodeRosa/NtupleForMVAProcessor/files_root/anaChain_CLIC_ILD_files_v6_BDT2018_5/3000GeV/anaChain_CLIC_ILD_4jets_7720.root, 21780.0, 
7722, 1.3, 0.875, 0.825, /home/ulrike/Work/CLIC/Projects/HiggsSelf/CodeRosa/NtupleForMVAProcessor/files_root/anaChain_CLIC_ILD_files_v6_BDT2018_5/3000GeV/anaChain_CLIC_ILD_4jets_7722.root, 21780.0, 
8199, 1.15, 1.0, 0.535, /home/ulrike/Work/CLIC/Projects/HiggsSelf/CodeRosa/NtupleForMVAProcessor/files_root/anaChain_CLIC_ILD_files_v6_BDT2018_5/3000GeV/anaChain_CLIC_ILD_4jets_8199.root, 21681.0, 
7724, 1.3, 0.925, 0.663, /home/ulrike/Work/CLIC/Projects/HiggsSelf/CodeRosa/NtupleForMVAProcessor/files_root/anaChain_CLIC_ILD_files_v6_BDT2018_5/3000GeV/anaChain_CLIC_ILD_4jets_7724.root, 21780.0, 
7726, 1.3, 0.975, 0.541, /home/ulrike/Work/CLIC/Projects/HiggsSelf/CodeRosa/NtupleForMVAProcessor/files_root/anaChain_CLIC_ILD_files_v6_BDT2018_5/3000GeV/anaChain_CLIC_ILD_4jets_7726.root, 21780.0, 
7728, 1.3, 1.025, 0.462, /home/ulrike/Work/CLIC/Projects/HiggsSelf/CodeRosa/NtupleForMVAProcessor/files_root/anaChain_CLIC_ILD_files_v6_BDT2018_5/3000GeV/anaChain_CLIC_ILD_4jets_7728.root, 21780.0, 
7730, 1.3, 1.075, 0.423, /home/ulrike/Work/CLIC/Projects/HiggsSelf/CodeRosa/NtupleForMVAProcessor/files_root/anaChain_CLIC_ILD_files_v6_BDT2018_5/3000GeV/anaChain_CLIC_ILD_4jets_7730.root, 21780.0, 
8185, 0.8, 1.0, 0.68, /home/ulrike/Work/CLIC/Projects/HiggsSelf/CodeRosa/NtupleForMVAProcessor/files_root/anaChain_CLIC_ILD_files_v6_BDT2018_5/3000GeV/anaChain_CLIC_ILD_4jets_8185.root, 21780.0, 
7732, 1.3, 1.125, 0.424, /home/ulrike/Work/CLIC/Projects/HiggsSelf/CodeRosa/NtupleForMVAProcessor/files_root/anaChain_CLIC_ILD_files_v6_BDT2018_5/3000GeV/anaChain_CLIC_ILD_4jets_7732.root, 21780.0, 
7734, 1.3, 1.175, 0.465, /home/ulrike/Work/CLIC/Projects/HiggsSelf/CodeRosa/NtupleForMVAProcessor/files_root/anaChain_CLIC_ILD_files_v6_BDT2018_5/3000GeV/anaChain_CLIC_ILD_4jets_7734.root, 21681.0, 
8201, 1.2, 1.0, 0.521, /home/ulrike/Work/CLIC/Projects/HiggsSelf/CodeRosa/NtupleForMVAProcessor/files_root/anaChain_CLIC_ILD_files_v6_BDT2018_5/3000GeV/anaChain_CLIC_ILD_4jets_8201.root, 21780.0, 
7736, 1.5, 0.825, 0.922, /home/ulrike/Work/CLIC/Projects/HiggsSelf/CodeRosa/NtupleForMVAProcessor/files_root/anaChain_CLIC_ILD_files_v6_BDT2018_5/3000GeV/anaChain_CLIC_ILD_4jets_7736.root, 21780.0, 
7738, 1.5, 0.875, 0.742, /home/ulrike/Work/CLIC/Projects/HiggsSelf/CodeRosa/NtupleForMVAProcessor/files_root/anaChain_CLIC_ILD_files_v6_BDT2018_5/3000GeV/anaChain_CLIC_ILD_4jets_7738.root, 21780.0, 
7740, 1.5, 0.925, 0.601, /home/ulrike/Work/CLIC/Projects/HiggsSelf/CodeRosa/NtupleForMVAProcessor/files_root/anaChain_CLIC_ILD_files_v6_BDT2018_5/3000GeV/anaChain_CLIC_ILD_4jets_7740.root, 21780.0, 
7742, 1.5, 0.975, 0.501, /home/ulrike/Work/CLIC/Projects/HiggsSelf/CodeRosa/NtupleForMVAProcessor/files_root/anaChain_CLIC_ILD_files_v6_BDT2018_5/3000GeV/anaChain_CLIC_ILD_4jets_7742.root, 21780.0, 
7744, 1.5, 1.025, 0.443, /home/ulrike/Work/CLIC/Projects/HiggsSelf/CodeRosa/NtupleForMVAProcessor/files_root/anaChain_CLIC_ILD_files_v6_BDT2018_5/3000GeV/anaChain_CLIC_ILD_4jets_7744.root, 21780.0, 
7746, 1.5, 1.075, 0.426, /home/ulrike/Work/CLIC/Projects/HiggsSelf/CodeRosa/NtupleForMVAProcessor/files_root/anaChain_CLIC_ILD_files_v6_BDT2018_5/3000GeV/anaChain_CLIC_ILD_4jets_7746.root, 21780.0, 
8203, 1.25, 1.0, 0.508, /home/ulrike/Work/CLIC/Projects/HiggsSelf/CodeRosa/NtupleForMVAProcessor/files_root/anaChain_CLIC_ILD_files_v6_BDT2018_5/3000GeV/anaChain_CLIC_ILD_4jets_8203.root, 21582.0, 
7748, 1.5, 1.125, 0.445, /home/ulrike/Work/CLIC/Projects/HiggsSelf/CodeRosa/NtupleForMVAProcessor/files_root/anaChain_CLIC_ILD_files_v6_BDT2018_5/3000GeV/anaChain_CLIC_ILD_4jets_7748.root, 21780.0, 
7750, 1.5, 1.175, 0.507, /home/ulrike/Work/CLIC/Projects/HiggsSelf/CodeRosa/NtupleForMVAProcessor/files_root/anaChain_CLIC_ILD_files_v6_BDT2018_5/3000GeV/anaChain_CLIC_ILD_4jets_7750.root, 21780.0, 
7752, 1.7, 0.825, 0.846, /home/ulrike/Work/CLIC/Projects/HiggsSelf/CodeRosa/NtupleForMVAProcessor/files_root/anaChain_CLIC_ILD_files_v6_BDT2018_5/3000GeV/anaChain_CLIC_ILD_4jets_7752.root, 21780.0, 
7754, 1.7, 0.875, 0.686, /home/ulrike/Work/CLIC/Projects/HiggsSelf/CodeRosa/NtupleForMVAProcessor/files_root/anaChain_CLIC_ILD_files_v6_BDT2018_5/3000GeV/anaChain_CLIC_ILD_4jets_7754.root, 21780.0, 
7756, 1.7, 0.925, 0.566, /home/ulrike/Work/CLIC/Projects/HiggsSelf/CodeRosa/NtupleForMVAProcessor/files_root/anaChain_CLIC_ILD_files_v6_BDT2018_5/3000GeV/anaChain_CLIC_ILD_4jets_7756.root, 21780.0, 
7758, 1.7, 0.975, 0.488, /home/ulrike/Work/CLIC/Projects/HiggsSelf/CodeRosa/NtupleForMVAProcessor/files_root/anaChain_CLIC_ILD_files_v6_BDT2018_5/3000GeV/anaChain_CLIC_ILD_4jets_7758.root, 21780.0, 
8205, 1.3, 1.0, 0.496, /home/ulrike/Work/CLIC/Projects/HiggsSelf/CodeRosa/NtupleForMVAProcessor/files_root/anaChain_CLIC_ILD_files_v6_BDT2018_5/3000GeV/anaChain_CLIC_ILD_4jets_8205.root, 21780.0, 
7760, 1.7, 1.025, 0.449, /home/ulrike/Work/CLIC/Projects/HiggsSelf/CodeRosa/NtupleForMVAProcessor/files_root/anaChain_CLIC_ILD_files_v6_BDT2018_5/3000GeV/anaChain_CLIC_ILD_4jets_7760.root, 21780.0, 
7762, 1.7, 1.075, 0.45, /home/ulrike/Work/CLIC/Projects/HiggsSelf/CodeRosa/NtupleForMVAProcessor/files_root/anaChain_CLIC_ILD_files_v6_BDT2018_5/3000GeV/anaChain_CLIC_ILD_4jets_7762.root, 21780.0, 
7764, 1.7, 1.125, 0.492, /home/ulrike/Work/CLIC/Projects/HiggsSelf/CodeRosa/NtupleForMVAProcessor/files_root/anaChain_CLIC_ILD_files_v6_BDT2018_5/3000GeV/anaChain_CLIC_ILD_4jets_7764.root, 21780.0, 
7766, 1.7, 1.175, 0.574, /home/ulrike/Work/CLIC/Projects/HiggsSelf/CodeRosa/NtupleForMVAProcessor/files_root/anaChain_CLIC_ILD_files_v6_BDT2018_5/3000GeV/anaChain_CLIC_ILD_4jets_7766.root, 21780.0, 
8207, 1.35, 1.0, 0.488, /home/ulrike/Work/CLIC/Projects/HiggsSelf/CodeRosa/NtupleForMVAProcessor/files_root/anaChain_CLIC_ILD_files_v6_BDT2018_5/3000GeV/anaChain_CLIC_ILD_4jets_8207.root, 21780.0, 
8209, 1.4, 1.0, 0.479, /home/ulrike/Work/CLIC/Projects/HiggsSelf/CodeRosa/NtupleForMVAProcessor/files_root/anaChain_CLIC_ILD_files_v6_BDT2018_5/3000GeV/anaChain_CLIC_ILD_4jets_8209.root, 21780.0, 
8187, 0.85, 1.0, 0.655, /home/ulrike/Work/CLIC/Projects/HiggsSelf/CodeRosa/NtupleForMVAProcessor/files_root/anaChain_CLIC_ILD_files_v6_BDT2018_5/3000GeV/anaChain_CLIC_ILD_4jets_8187.root, 21681.0, 
8211, 1.45, 1.0, 0.473, /home/ulrike/Work/CLIC/Projects/HiggsSelf/CodeRosa/NtupleForMVAProcessor/files_root/anaChain_CLIC_ILD_files_v6_BDT2018_5/3000GeV/anaChain_CLIC_ILD_4jets_8211.root, 21780.0, 
8213, 1.5, 1.0, 0.467, /home/ulrike/Work/CLIC/Projects/HiggsSelf/CodeRosa/NtupleForMVAProcessor/files_root/anaChain_CLIC_ILD_files_v6_BDT2018_5/3000GeV/anaChain_CLIC_ILD_4jets_8213.root, 21780.0, 
8181, 0.7, 1.0, 0.737, /home/ulrike/Work/CLIC/Projects/HiggsSelf/CodeRosa/NtupleForMVAProcessor/files_root/anaChain_CLIC_ILD_files_v6_BDT2018_5/3000GeV/anaChain_CLIC_ILD_4jets_8181.root, 21780.0, 
8191, 0.95, 1.0, 0.609, /home/ulrike/Work/CLIC/Projects/HiggsSelf/CodeRosa/NtupleForMVAProcessor/files_root/anaChain_CLIC_ILD_files_v6_BDT2018_5/3000GeV/anaChain_CLIC_ILD_4jets_8191.root, 21681.0, 
8175, 0.55, 1.0, 0.83, /home/ulrike/Work/CLIC/Projects/HiggsSelf/CodeRosa/NtupleForMVAProcessor/files_root/anaChain_CLIC_ILD_files_v6_BDT2018_5/3000GeV/anaChain_CLIC_ILD_4jets_8175.root, 19899.0, 
8066, 0.95, 0.975, 0.671, /home/ulrike/Work/CLIC/Projects/HiggsSelf/CodeRosa/NtupleForMVAProcessor/files_root/anaChain_CLIC_ILD_files_v6_BDT2018_5/3000GeV/anaChain_CLIC_ILD_4jets_8066.root, 21780.0, 
8068, 0.95, 1.0, 0.609, /home/ulrike/Work/CLIC/Projects/HiggsSelf/CodeRosa/NtupleForMVAProcessor/files_root/anaChain_CLIC_ILD_files_v6_BDT2018_5/3000GeV/anaChain_CLIC_ILD_4jets_8068.root, 21780.0, 
8193, 1.0, 1.0, 0.589, /home/ulrike/Work/CLIC/Projects/HiggsSelf/CodeRosa/NtupleForMVAProcessor/files_root/anaChain_CLIC_ILD_files_v6_BDT2018_5/3000GeV/anaChain_CLIC_ILD_4jets_8193.root, 21780.0, 
8070, 0.95, 1.025, 0.556, /home/ulrike/Work/CLIC/Projects/HiggsSelf/CodeRosa/NtupleForMVAProcessor/files_root/anaChain_CLIC_ILD_files_v6_BDT2018_5/3000GeV/anaChain_CLIC_ILD_4jets_8070.root, 21780.0, 
8072, 1.0, 0.975, 0.648, /home/ulrike/Work/CLIC/Projects/HiggsSelf/CodeRosa/NtupleForMVAProcessor/files_root/anaChain_CLIC_ILD_files_v6_BDT2018_5/3000GeV/anaChain_CLIC_ILD_4jets_8072.root, 21780.0, 
7580, 2.6, 1.0, 0.753, /home/ulrike/Work/CLIC/Projects/HiggsSelf/CodeRosa/NtupleForMVAProcessor/files_root/anaChain_CLIC_ILD_files_v6_BDT2018_5/3000GeV/anaChain_CLIC_ILD_4jets_7580.root, 21780.0, 
8074, 1.0, 1.0, 0.589, /home/ulrike/Work/CLIC/Projects/HiggsSelf/CodeRosa/NtupleForMVAProcessor/files_root/anaChain_CLIC_ILD_files_v6_BDT2018_5/3000GeV/anaChain_CLIC_ILD_4jets_8074.root, 21780.0, 
8177, 0.6, 1.0, 0.798, /home/ulrike/Work/CLIC/Projects/HiggsSelf/CodeRosa/NtupleForMVAProcessor/files_root/anaChain_CLIC_ILD_files_v6_BDT2018_5/3000GeV/anaChain_CLIC_ILD_4jets_8177.root, 21681.0, 
8183, 0.75, 1.0, 0.707, /home/ulrike/Work/CLIC/Projects/HiggsSelf/CodeRosa/NtupleForMVAProcessor/files_root/anaChain_CLIC_ILD_files_v6_BDT2018_5/3000GeV/anaChain_CLIC_ILD_4jets_8183.root, 21681.0, 
8076, 1.0, 1.025, 0.537, /home/ulrike/Work/CLIC/Projects/HiggsSelf/CodeRosa/NtupleForMVAProcessor/files_root/anaChain_CLIC_ILD_files_v6_BDT2018_5/3000GeV/anaChain_CLIC_ILD_4jets_8076.root, 21780.0, 
8078, 1.05, 0.975, 0.628, /home/ulrike/Work/CLIC/Projects/HiggsSelf/CodeRosa/NtupleForMVAProcessor/files_root/anaChain_CLIC_ILD_files_v6_BDT2018_5/3000GeV/anaChain_CLIC_ILD_4jets_8078.root, 21780.0, 
8195, 1.05, 1.0, 0.57, /home/ulrike/Work/CLIC/Projects/HiggsSelf/CodeRosa/NtupleForMVAProcessor/files_root/anaChain_CLIC_ILD_files_v6_BDT2018_5/3000GeV/anaChain_CLIC_ILD_4jets_8195.root, 21483.0, 
8080, 1.05, 1.0, 0.57, /home/ulrike/Work/CLIC/Projects/HiggsSelf/CodeRosa/NtupleForMVAProcessor/files_root/anaChain_CLIC_ILD_files_v6_BDT2018_5/3000GeV/anaChain_CLIC_ILD_4jets_8080.root, 21780.0, 
8082, 1.05, 1.025, 0.52, /home/ulrike/Work/CLIC/Projects/HiggsSelf/CodeRosa/NtupleForMVAProcessor/files_root/anaChain_CLIC_ILD_files_v6_BDT2018_5/3000GeV/anaChain_CLIC_ILD_4jets_8082.root, 21780.0, 
7542, 1.8, 0.85, 0.738, /home/ulrike/Work/CLIC/Projects/HiggsSelf/CodeRosa/NtupleForMVAProcessor/files_root/anaChain_CLIC_ILD_files_v6_BDT2018_5/3000GeV/anaChain_CLIC_ILD_4jets_7542.root, 21681.0, 
7544, 1.8, 0.9, 0.609, /home/ulrike/Work/CLIC/Projects/HiggsSelf/CodeRosa/NtupleForMVAProcessor/files_root/anaChain_CLIC_ILD_files_v6_BDT2018_5/3000GeV/anaChain_CLIC_ILD_4jets_7544.root, 21681.0, 
7546, 1.8, 0.95, 0.518, /home/ulrike/Work/CLIC/Projects/HiggsSelf/CodeRosa/NtupleForMVAProcessor/files_root/anaChain_CLIC_ILD_files_v6_BDT2018_5/3000GeV/anaChain_CLIC_ILD_4jets_7546.root, 21681.0, 
7548, 1.8, 1.0, 0.47, /home/ulrike/Work/CLIC/Projects/HiggsSelf/CodeRosa/NtupleForMVAProcessor/files_root/anaChain_CLIC_ILD_files_v6_BDT2018_5/3000GeV/anaChain_CLIC_ILD_4jets_7548.root, 21780.0, 
7550, 2.0, 0.85, 0.708, /home/ulrike/Work/CLIC/Projects/HiggsSelf/CodeRosa/NtupleForMVAProcessor/files_root/anaChain_CLIC_ILD_files_v6_BDT2018_5/3000GeV/anaChain_CLIC_ILD_4jets_7550.root, 21582.0, 
8179, 0.65, 1.0, 0.768, /home/ulrike/Work/CLIC/Projects/HiggsSelf/CodeRosa/NtupleForMVAProcessor/files_root/anaChain_CLIC_ILD_files_v6_BDT2018_5/3000GeV/anaChain_CLIC_ILD_4jets_8179.root, 10593.0, 
7552, 2.0, 0.9, 0.599, /home/ulrike/Work/CLIC/Projects/HiggsSelf/CodeRosa/NtupleForMVAProcessor/files_root/anaChain_CLIC_ILD_files_v6_BDT2018_5/3000GeV/anaChain_CLIC_ILD_4jets_7552.root, 21780.0, 
7554, 2.0, 0.95, 0.53, /home/ulrike/Work/CLIC/Projects/HiggsSelf/CodeRosa/NtupleForMVAProcessor/files_root/anaChain_CLIC_ILD_files_v6_BDT2018_5/3000GeV/anaChain_CLIC_ILD_4jets_7554.root, 21780.0, 
7556, 2.0, 1.0, 0.503, /home/ulrike/Work/CLIC/Projects/HiggsSelf/CodeRosa/NtupleForMVAProcessor/files_root/anaChain_CLIC_ILD_files_v6_BDT2018_5/3000GeV/anaChain_CLIC_ILD_4jets_7556.root, 21780.0, 
7558, 2.2, 0.85, 0.704, /home/ulrike/Work/CLIC/Projects/HiggsSelf/CodeRosa/NtupleForMVAProcessor/files_root/anaChain_CLIC_ILD_files_v6_BDT2018_5/3000GeV/anaChain_CLIC_ILD_4jets_7558.root, 21780.0, 
7560, 2.2, 0.9, 0.615, /home/ulrike/Work/CLIC/Projects/HiggsSelf/CodeRosa/NtupleForMVAProcessor/files_root/anaChain_CLIC_ILD_files_v6_BDT2018_5/3000GeV/anaChain_CLIC_ILD_4jets_7560.root, 21780.0, 
7562, 2.2, 0.95, 0.568, /home/ulrike/Work/CLIC/Projects/HiggsSelf/CodeRosa/NtupleForMVAProcessor/files_root/anaChain_CLIC_ILD_files_v6_BDT2018_5/3000GeV/anaChain_CLIC_ILD_4jets_7562.root, 21780.0, 
7564, 2.2, 1.0, 0.561, /home/ulrike/Work/CLIC/Projects/HiggsSelf/CodeRosa/NtupleForMVAProcessor/files_root/anaChain_CLIC_ILD_files_v6_BDT2018_5/3000GeV/anaChain_CLIC_ILD_4jets_7564.root, 21780.0, 
7566, 2.4, 0.85, 0.725, /home/ulrike/Work/CLIC/Projects/HiggsSelf/CodeRosa/NtupleForMVAProcessor/files_root/anaChain_CLIC_ILD_files_v6_BDT2018_5/3000GeV/anaChain_CLIC_ILD_4jets_7566.root, 21681.0, 
8173, 0.5, 1.0, 0.865, /home/ulrike/Work/CLIC/Projects/HiggsSelf/CodeRosa/NtupleForMVAProcessor/files_root/anaChain_CLIC_ILD_files_v6_BDT2018_5/3000GeV/anaChain_CLIC_ILD_4jets_8173.root, 19008.0, 
7568, 2.4, 0.9, 0.658, /home/ulrike/Work/CLIC/Projects/HiggsSelf/CodeRosa/NtupleForMVAProcessor/files_root/anaChain_CLIC_ILD_files_v6_BDT2018_5/3000GeV/anaChain_CLIC_ILD_4jets_7568.root, 21780.0, 
7570, 2.4, 0.95, 0.631, /home/ulrike/Work/CLIC/Projects/HiggsSelf/CodeRosa/NtupleForMVAProcessor/files_root/anaChain_CLIC_ILD_files_v6_BDT2018_5/3000GeV/anaChain_CLIC_ILD_4jets_7570.root, 21780.0, 
7572, 2.4, 1.0, 0.645, /home/ulrike/Work/CLIC/Projects/HiggsSelf/CodeRosa/NtupleForMVAProcessor/files_root/anaChain_CLIC_ILD_files_v6_BDT2018_5/3000GeV/anaChain_CLIC_ILD_4jets_7572.root, 21780.0, 
7574, 2.6, 0.85, 0.77, /home/ulrike/Work/CLIC/Projects/HiggsSelf/CodeRosa/NtupleForMVAProcessor/files_root/anaChain_CLIC_ILD_files_v6_BDT2018_5/3000GeV/anaChain_CLIC_ILD_4jets_7574.root, 21780.0, 
7576, 2.6, 0.9, 0.724, /home/ulrike/Work/CLIC/Projects/HiggsSelf/CodeRosa/NtupleForMVAProcessor/files_root/anaChain_CLIC_ILD_files_v6_BDT2018_5/3000GeV/anaChain_CLIC_ILD_4jets_7576.root, 21681.0, 
7578, 2.6, 0.95, 0.719, /home/ulrike/Work/CLIC/Projects/HiggsSelf/CodeRosa/NtupleForMVAProcessor/files_root/anaChain_CLIC_ILD_files_v6_BDT2018_5/3000GeV/anaChain_CLIC_ILD_4jets_7578.root, 21780.0, 
7067, 0.4, 0.85, 1.64, /home/ulrike/Work/CLIC/Projects/HiggsSelf/CodeRosa/NtupleForMVAProcessor/files_root/anaChain_CLIC_ILD_files_v6_BDT2018_5/3000GeV/anaChain_CLIC_ILD_4jets_7067.root, 21780.0, 
8197, 1.1, 1.0, 0.551, /home/ulrike/Work/CLIC/Projects/HiggsSelf/CodeRosa/NtupleForMVAProcessor/files_root/anaChain_CLIC_ILD_files_v6_BDT2018_5/3000GeV/anaChain_CLIC_ILD_4jets_8197.root, 21780.0, 
7069, 0.4, 0.9, 1.37, /home/ulrike/Work/CLIC/Projects/HiggsSelf/CodeRosa/NtupleForMVAProcessor/files_root/anaChain_CLIC_ILD_files_v6_BDT2018_5/3000GeV/anaChain_CLIC_ILD_4jets_7069.root, 21780.0, 
7071, 0.4, 0.95, 1.13, /home/ulrike/Work/CLIC/Projects/HiggsSelf/CodeRosa/NtupleForMVAProcessor/files_root/anaChain_CLIC_ILD_files_v6_BDT2018_5/3000GeV/anaChain_CLIC_ILD_4jets_7071.root, 21780.0, 
7073, 0.4, 1.0, 0.942, /home/ulrike/Work/CLIC/Projects/HiggsSelf/CodeRosa/NtupleForMVAProcessor/files_root/anaChain_CLIC_ILD_files_v6_BDT2018_5/3000GeV/anaChain_CLIC_ILD_4jets_7073.root, 21780.0, 
7075, 0.4, 1.05, 0.79, /home/ulrike/Work/CLIC/Projects/HiggsSelf/CodeRosa/NtupleForMVAProcessor/files_root/anaChain_CLIC_ILD_files_v6_BDT2018_5/3000GeV/anaChain_CLIC_ILD_4jets_7075.root, 21780.0, 
7077, 0.4, 1.1, 0.675, /home/ulrike/Work/CLIC/Projects/HiggsSelf/CodeRosa/NtupleForMVAProcessor/files_root/anaChain_CLIC_ILD_files_v6_BDT2018_5/3000GeV/anaChain_CLIC_ILD_4jets_7077.root, 21780.0, 
7079, 0.4, 1.15, 0.604, /home/ulrike/Work/CLIC/Projects/HiggsSelf/CodeRosa/NtupleForMVAProcessor/files_root/anaChain_CLIC_ILD_files_v6_BDT2018_5/3000GeV/anaChain_CLIC_ILD_4jets_7079.root, 20790.0, 
7081, 0.6, 0.85, 1.44, /home/ulrike/Work/CLIC/Projects/HiggsSelf/CodeRosa/NtupleForMVAProcessor/files_root/anaChain_CLIC_ILD_files_v6_BDT2018_5/3000GeV/anaChain_CLIC_ILD_4jets_7081.root, 21780.0, 
7083, 0.6, 0.9, 1.18, /home/ulrike/Work/CLIC/Projects/HiggsSelf/CodeRosa/NtupleForMVAProcessor/files_root/anaChain_CLIC_ILD_files_v6_BDT2018_5/3000GeV/anaChain_CLIC_ILD_4jets_7083.root, 21780.0, 
7085, 0.6, 0.95, 0.97, /home/ulrike/Work/CLIC/Projects/HiggsSelf/CodeRosa/NtupleForMVAProcessor/files_root/anaChain_CLIC_ILD_files_v6_BDT2018_5/3000GeV/anaChain_CLIC_ILD_4jets_7085.root, 19800.0, 
7087, 0.6, 1.0, 0.798, /home/ulrike/Work/CLIC/Projects/HiggsSelf/CodeRosa/NtupleForMVAProcessor/files_root/anaChain_CLIC_ILD_files_v6_BDT2018_5/3000GeV/anaChain_CLIC_ILD_4jets_7087.root, 20790.0, 
7089, 0.6, 1.05, 0.667, /home/ulrike/Work/CLIC/Projects/HiggsSelf/CodeRosa/NtupleForMVAProcessor/files_root/anaChain_CLIC_ILD_files_v6_BDT2018_5/3000GeV/anaChain_CLIC_ILD_4jets_7089.root, 21780.0, 
7091, 0.6, 1.1, 0.574, /home/ulrike/Work/CLIC/Projects/HiggsSelf/CodeRosa/NtupleForMVAProcessor/files_root/anaChain_CLIC_ILD_files_v6_BDT2018_5/3000GeV/anaChain_CLIC_ILD_4jets_7091.root, 21780.0, 
7093, 0.6, 1.15, 0.523, /home/ulrike/Work/CLIC/Projects/HiggsSelf/CodeRosa/NtupleForMVAProcessor/files_root/anaChain_CLIC_ILD_files_v6_BDT2018_5/3000GeV/anaChain_CLIC_ILD_4jets_7093.root, 20790.0, 
7095, 0.8, 0.85, 1.26, /home/ulrike/Work/CLIC/Projects/HiggsSelf/CodeRosa/NtupleForMVAProcessor/files_root/anaChain_CLIC_ILD_files_v6_BDT2018_5/3000GeV/anaChain_CLIC_ILD_4jets_7095.root, 19800.0, 
7097, 0.8, 0.9, 1.02, /home/ulrike/Work/CLIC/Projects/HiggsSelf/CodeRosa/NtupleForMVAProcessor/files_root/anaChain_CLIC_ILD_files_v6_BDT2018_5/3000GeV/anaChain_CLIC_ILD_4jets_7097.root, 21780.0, 
7099, 0.8, 0.95, 0.832, /home/ulrike/Work/CLIC/Projects/HiggsSelf/CodeRosa/NtupleForMVAProcessor/files_root/anaChain_CLIC_ILD_files_v6_BDT2018_5/3000GeV/anaChain_CLIC_ILD_4jets_7099.root, 21780.0, 
7101, 0.8, 1.0, 0.68, /home/ulrike/Work/CLIC/Projects/HiggsSelf/CodeRosa/NtupleForMVAProcessor/files_root/anaChain_CLIC_ILD_files_v6_BDT2018_5/3000GeV/anaChain_CLIC_ILD_4jets_7101.root, 21780.0, 
7103, 0.8, 1.05, 0.569, /home/ulrike/Work/CLIC/Projects/HiggsSelf/CodeRosa/NtupleForMVAProcessor/files_root/anaChain_CLIC_ILD_files_v6_BDT2018_5/3000GeV/anaChain_CLIC_ILD_4jets_7103.root, 21780.0, 
7105, 0.8, 1.1, 0.498, /home/ulrike/Work/CLIC/Projects/HiggsSelf/CodeRosa/NtupleForMVAProcessor/files_root/anaChain_CLIC_ILD_files_v6_BDT2018_5/3000GeV/anaChain_CLIC_ILD_4jets_7105.root, 21780.0, 
7107, 0.8, 1.15, 0.469, /home/ulrike/Work/CLIC/Projects/HiggsSelf/CodeRosa/NtupleForMVAProcessor/files_root/anaChain_CLIC_ILD_files_v6_BDT2018_5/3000GeV/anaChain_CLIC_ILD_4jets_7107.root, 20790.0, 
7109, 1.0, 0.85, 1.1, /home/ulrike/Work/CLIC/Projects/HiggsSelf/CodeRosa/NtupleForMVAProcessor/files_root/anaChain_CLIC_ILD_files_v6_BDT2018_5/3000GeV/anaChain_CLIC_ILD_4jets_7109.root, 20790.0, 
7111, 1.0, 0.9, 0.891, /home/ulrike/Work/CLIC/Projects/HiggsSelf/CodeRosa/NtupleForMVAProcessor/files_root/anaChain_CLIC_ILD_files_v6_BDT2018_5/3000GeV/anaChain_CLIC_ILD_4jets_7111.root, 21780.0, 
7113, 1.0, 0.95, 0.718, /home/ulrike/Work/CLIC/Projects/HiggsSelf/CodeRosa/NtupleForMVAProcessor/files_root/anaChain_CLIC_ILD_files_v6_BDT2018_5/3000GeV/anaChain_CLIC_ILD_4jets_7113.root, 18810.0, 
7115, 1.0, 1.0, 0.589, /home/ulrike/Work/CLIC/Projects/HiggsSelf/CodeRosa/NtupleForMVAProcessor/files_root/anaChain_CLIC_ILD_files_v6_BDT2018_5/3000GeV/anaChain_CLIC_ILD_4jets_7115.root, 19800.0, 
7117, 1.0, 1.05, 0.497, /home/ulrike/Work/CLIC/Projects/HiggsSelf/CodeRosa/NtupleForMVAProcessor/files_root/anaChain_CLIC_ILD_files_v6_BDT2018_5/3000GeV/anaChain_CLIC_ILD_4jets_7117.root, 21780.0, 
7119, 1.0, 1.1, 0.447, /home/ulrike/Work/CLIC/Projects/HiggsSelf/CodeRosa/NtupleForMVAProcessor/files_root/anaChain_CLIC_ILD_files_v6_BDT2018_5/3000GeV/anaChain_CLIC_ILD_4jets_7119.root, 21780.0, 
7121, 1.0, 1.15, 0.44, /home/ulrike/Work/CLIC/Projects/HiggsSelf/CodeRosa/NtupleForMVAProcessor/files_root/anaChain_CLIC_ILD_files_v6_BDT2018_5/3000GeV/anaChain_CLIC_ILD_4jets_7121.root, 21780.0, 
7123, 1.2, 0.85, 0.976, /home/ulrike/Work/CLIC/Projects/HiggsSelf/CodeRosa/NtupleForMVAProcessor/files_root/anaChain_CLIC_ILD_files_v6_BDT2018_5/3000GeV/anaChain_CLIC_ILD_4jets_7123.root, 21780.0, 
7125, 1.2, 0.9, 0.782, /home/ulrike/Work/CLIC/Projects/HiggsSelf/CodeRosa/NtupleForMVAProcessor/files_root/anaChain_CLIC_ILD_files_v6_BDT2018_5/3000GeV/anaChain_CLIC_ILD_4jets_7125.root, 21780.0, 
7127, 1.2, 0.95, 0.63, /home/ulrike/Work/CLIC/Projects/HiggsSelf/CodeRosa/NtupleForMVAProcessor/files_root/anaChain_CLIC_ILD_files_v6_BDT2018_5/3000GeV/anaChain_CLIC_ILD_4jets_7127.root, 21780.0, 
7640, 0.3, 0.825, 1.91, /home/ulrike/Work/CLIC/Projects/HiggsSelf/CodeRosa/NtupleForMVAProcessor/files_root/anaChain_CLIC_ILD_files_v6_BDT2018_5/3000GeV/anaChain_CLIC_ILD_4jets_7640.root, 21780.0, 
7129, 1.2, 1.0, 0.521, /home/ulrike/Work/CLIC/Projects/HiggsSelf/CodeRosa/NtupleForMVAProcessor/files_root/anaChain_CLIC_ILD_files_v6_BDT2018_5/3000GeV/anaChain_CLIC_ILD_4jets_7129.root, 21780.0, 
7642, 0.3, 0.875, 1.61, /home/ulrike/Work/CLIC/Projects/HiggsSelf/CodeRosa/NtupleForMVAProcessor/files_root/anaChain_CLIC_ILD_files_v6_BDT2018_5/3000GeV/anaChain_CLIC_ILD_4jets_7642.root, 21780.0, 
7131, 1.2, 1.05, 0.45, /home/ulrike/Work/CLIC/Projects/HiggsSelf/CodeRosa/NtupleForMVAProcessor/files_root/anaChain_CLIC_ILD_files_v6_BDT2018_5/3000GeV/anaChain_CLIC_ILD_4jets_7131.root, 21780.0, 
7644, 0.3, 0.925, 1.34, /home/ulrike/Work/CLIC/Projects/HiggsSelf/CodeRosa/NtupleForMVAProcessor/files_root/anaChain_CLIC_ILD_files_v6_BDT2018_5/3000GeV/anaChain_CLIC_ILD_4jets_7644.root, 21780.0, 
7133, 1.2, 1.1, 0.422, /home/ulrike/Work/CLIC/Projects/HiggsSelf/CodeRosa/NtupleForMVAProcessor/files_root/anaChain_CLIC_ILD_files_v6_BDT2018_5/3000GeV/anaChain_CLIC_ILD_4jets_7133.root, 20790.0, 
7646, 0.3, 0.975, 1.12, /home/ulrike/Work/CLIC/Projects/HiggsSelf/CodeRosa/NtupleForMVAProcessor/files_root/anaChain_CLIC_ILD_files_v6_BDT2018_5/3000GeV/anaChain_CLIC_ILD_4jets_7646.root, 21780.0, 
7135, 1.2, 1.15, 0.432, /home/ulrike/Work/CLIC/Projects/HiggsSelf/CodeRosa/NtupleForMVAProcessor/files_root/anaChain_CLIC_ILD_files_v6_BDT2018_5/3000GeV/anaChain_CLIC_ILD_4jets_7135.root, 21780.0, 
7648, 0.3, 1.025, 0.936, /home/ulrike/Work/CLIC/Projects/HiggsSelf/CodeRosa/NtupleForMVAProcessor/files_root/anaChain_CLIC_ILD_files_v6_BDT2018_5/3000GeV/anaChain_CLIC_ILD_4jets_7648.root, 21780.0, 
7137, 1.4, 0.85, 0.87, /home/ulrike/Work/CLIC/Projects/HiggsSelf/CodeRosa/NtupleForMVAProcessor/files_root/anaChain_CLIC_ILD_files_v6_BDT2018_5/3000GeV/anaChain_CLIC_ILD_4jets_7137.root, 21780.0, 
7650, 0.3, 1.075, 0.792, /home/ulrike/Work/CLIC/Projects/HiggsSelf/CodeRosa/NtupleForMVAProcessor/files_root/anaChain_CLIC_ILD_files_v6_BDT2018_5/3000GeV/anaChain_CLIC_ILD_4jets_7650.root, 21780.0, 
7139, 1.4, 0.9, 0.698, /home/ulrike/Work/CLIC/Projects/HiggsSelf/CodeRosa/NtupleForMVAProcessor/files_root/anaChain_CLIC_ILD_files_v6_BDT2018_5/3000GeV/anaChain_CLIC_ILD_4jets_7139.root, 21780.0, 
7652, 0.3, 1.125, 0.689, /home/ulrike/Work/CLIC/Projects/HiggsSelf/CodeRosa/NtupleForMVAProcessor/files_root/anaChain_CLIC_ILD_files_v6_BDT2018_5/3000GeV/anaChain_CLIC_ILD_4jets_7652.root, 21780.0, 
7141, 1.4, 0.95, 0.567, /home/ulrike/Work/CLIC/Projects/HiggsSelf/CodeRosa/NtupleForMVAProcessor/files_root/anaChain_CLIC_ILD_files_v6_BDT2018_5/3000GeV/anaChain_CLIC_ILD_4jets_7141.root, 21780.0, 
7654, 0.3, 1.175, 0.631, /home/ulrike/Work/CLIC/Projects/HiggsSelf/CodeRosa/NtupleForMVAProcessor/files_root/anaChain_CLIC_ILD_files_v6_BDT2018_5/3000GeV/anaChain_CLIC_ILD_4jets_7654.root, 21780.0, 
7143, 1.4, 1.0, 0.479, /home/ulrike/Work/CLIC/Projects/HiggsSelf/CodeRosa/NtupleForMVAProcessor/files_root/anaChain_CLIC_ILD_files_v6_BDT2018_5/3000GeV/anaChain_CLIC_ILD_4jets_7143.root, 21780.0, 
7656, 0.5, 0.825, 1.68, /home/ulrike/Work/CLIC/Projects/HiggsSelf/CodeRosa/NtupleForMVAProcessor/files_root/anaChain_CLIC_ILD_files_v6_BDT2018_5/3000GeV/anaChain_CLIC_ILD_4jets_7656.root, 21780.0, 
7145, 1.4, 1.05, 0.43, /home/ulrike/Work/CLIC/Projects/HiggsSelf/CodeRosa/NtupleForMVAProcessor/files_root/anaChain_CLIC_ILD_files_v6_BDT2018_5/3000GeV/anaChain_CLIC_ILD_4jets_7145.root, 21780.0, 
7658, 0.5, 0.875, 1.4, /home/ulrike/Work/CLIC/Projects/HiggsSelf/CodeRosa/NtupleForMVAProcessor/files_root/anaChain_CLIC_ILD_files_v6_BDT2018_5/3000GeV/anaChain_CLIC_ILD_4jets_7658.root, 21780.0, 
7147, 1.4, 1.1, 0.422, /home/ulrike/Work/CLIC/Projects/HiggsSelf/CodeRosa/NtupleForMVAProcessor/files_root/anaChain_CLIC_ILD_files_v6_BDT2018_5/3000GeV/anaChain_CLIC_ILD_4jets_7147.root, 21780.0, 
7660, 0.5, 0.925, 1.15, /home/ulrike/Work/CLIC/Projects/HiggsSelf/CodeRosa/NtupleForMVAProcessor/files_root/anaChain_CLIC_ILD_files_v6_BDT2018_5/3000GeV/anaChain_CLIC_ILD_4jets_7660.root, 21780.0, 
7149, 1.4, 1.15, 0.452, /home/ulrike/Work/CLIC/Projects/HiggsSelf/CodeRosa/NtupleForMVAProcessor/files_root/anaChain_CLIC_ILD_files_v6_BDT2018_5/3000GeV/anaChain_CLIC_ILD_4jets_7149.root, 21780.0, 
7662, 0.5, 0.975, 0.953, /home/ulrike/Work/CLIC/Projects/HiggsSelf/CodeRosa/NtupleForMVAProcessor/files_root/anaChain_CLIC_ILD_files_v6_BDT2018_5/3000GeV/anaChain_CLIC_ILD_4jets_7662.root, 21780.0, 
7151, 1.6, 0.85, 0.789, /home/ulrike/Work/CLIC/Projects/HiggsSelf/CodeRosa/NtupleForMVAProcessor/files_root/anaChain_CLIC_ILD_files_v6_BDT2018_5/3000GeV/anaChain_CLIC_ILD_4jets_7151.root, 21780.0, 
7664, 0.5, 1.025, 0.789, /home/ulrike/Work/CLIC/Projects/HiggsSelf/CodeRosa/NtupleForMVAProcessor/files_root/anaChain_CLIC_ILD_files_v6_BDT2018_5/3000GeV/anaChain_CLIC_ILD_4jets_7664.root, 21780.0, 
7153, 1.6, 0.9, 0.64, /home/ulrike/Work/CLIC/Projects/HiggsSelf/CodeRosa/NtupleForMVAProcessor/files_root/anaChain_CLIC_ILD_files_v6_BDT2018_5/3000GeV/anaChain_CLIC_ILD_4jets_7153.root, 21780.0, 
7666, 0.5, 1.075, 0.668, /home/ulrike/Work/CLIC/Projects/HiggsSelf/CodeRosa/NtupleForMVAProcessor/files_root/anaChain_CLIC_ILD_files_v6_BDT2018_5/3000GeV/anaChain_CLIC_ILD_4jets_7666.root, 21780.0, 
7155, 1.6, 0.95, 0.531, /home/ulrike/Work/CLIC/Projects/HiggsSelf/CodeRosa/NtupleForMVAProcessor/files_root/anaChain_CLIC_ILD_files_v6_BDT2018_5/3000GeV/anaChain_CLIC_ILD_4jets_7155.root, 21780.0, 
7668, 0.5, 1.125, 0.585, /home/ulrike/Work/CLIC/Projects/HiggsSelf/CodeRosa/NtupleForMVAProcessor/files_root/anaChain_CLIC_ILD_files_v6_BDT2018_5/3000GeV/anaChain_CLIC_ILD_4jets_7668.root, 21780.0, 
7157, 1.6, 1.0, 0.464, /home/ulrike/Work/CLIC/Projects/HiggsSelf/CodeRosa/NtupleForMVAProcessor/files_root/anaChain_CLIC_ILD_files_v6_BDT2018_5/3000GeV/anaChain_CLIC_ILD_4jets_7157.root, 21780.0, 
7670, 0.5, 1.175, 0.546, /home/ulrike/Work/CLIC/Projects/HiggsSelf/CodeRosa/NtupleForMVAProcessor/files_root/anaChain_CLIC_ILD_files_v6_BDT2018_5/3000GeV/anaChain_CLIC_ILD_4jets_7670.root, 21780.0, 
7159, 1.6, 1.05, 0.434, /home/ulrike/Work/CLIC/Projects/HiggsSelf/CodeRosa/NtupleForMVAProcessor/files_root/anaChain_CLIC_ILD_files_v6_BDT2018_5/3000GeV/anaChain_CLIC_ILD_4jets_7159.root, 21780.0, 
7672, 0.7, 0.825, 1.48, /home/ulrike/Work/CLIC/Projects/HiggsSelf/CodeRosa/NtupleForMVAProcessor/files_root/anaChain_CLIC_ILD_files_v6_BDT2018_5/3000GeV/anaChain_CLIC_ILD_4jets_7672.root, 21780.0, 
7161, 1.6, 1.1, 0.444, /home/ulrike/Work/CLIC/Projects/HiggsSelf/CodeRosa/NtupleForMVAProcessor/files_root/anaChain_CLIC_ILD_files_v6_BDT2018_5/3000GeV/anaChain_CLIC_ILD_4jets_7161.root, 21780.0, 
7674, 0.7, 0.875, 1.22, /home/ulrike/Work/CLIC/Projects/HiggsSelf/CodeRosa/NtupleForMVAProcessor/files_root/anaChain_CLIC_ILD_files_v6_BDT2018_5/3000GeV/anaChain_CLIC_ILD_4jets_7674.root, 21780.0, 
7163, 1.6, 1.15, 0.496, /home/ulrike/Work/CLIC/Projects/HiggsSelf/CodeRosa/NtupleForMVAProcessor/files_root/anaChain_CLIC_ILD_files_v6_BDT2018_5/3000GeV/anaChain_CLIC_ILD_4jets_7163.root, 21780.0, 
7676, 0.7, 0.925, 0.995, /home/ulrike/Work/CLIC/Projects/HiggsSelf/CodeRosa/NtupleForMVAProcessor/files_root/anaChain_CLIC_ILD_files_v6_BDT2018_5/3000GeV/anaChain_CLIC_ILD_4jets_7676.root, 21780.0, 
8189, 0.9, 1.0, 0.631, /home/ulrike/Work/CLIC/Projects/HiggsSelf/CodeRosa/NtupleForMVAProcessor/files_root/anaChain_CLIC_ILD_files_v6_BDT2018_5/3000GeV/anaChain_CLIC_ILD_4jets_8189.root, 21780.0, 
7678, 0.7, 0.975, 0.812, /home/ulrike/Work/CLIC/Projects/HiggsSelf/CodeRosa/NtupleForMVAProcessor/files_root/anaChain_CLIC_ILD_files_v6_BDT2018_5/3000GeV/anaChain_CLIC_ILD_4jets_7678.root, 21780.0, 
7167, 0.2, 0.6, 3.95, /home/ulrike/Work/CLIC/Projects/HiggsSelf/CodeRosa/NtupleForMVAProcessor/files_root/anaChain_CLIC_ILD_files_v6_BDT2018_5/3000GeV/anaChain_CLIC_ILD_4jets_7167.root, 21780.0, 
