#prodID reco, prodID gen
8070, 176
7129, 32
7113, 24
3048, 3046
6721, 6719
6727, 6725
7115, 25
6724, 6722
7119, 27
6571, 6569
6577, 6575
6574, 6572
8193, 193
7694, 137
7696, 138
7690, 135
7758, 169
7692, 136
7193, 63
7754, 167
7191, 62
7756, 168
7197, 65
7750, 165
7195, 64
7752, 166
7081, 8
7083, 9
7173, 53
7732, 156
7127, 31
7672, 126
7125, 30
7123, 29
7121, 28
7087, 11
7079, 7
7111, 23
7728, 154
7686, 133
7684, 132
7682, 131
7680, 130
7720, 150
7117, 26
7722, 151
7724, 152
7726, 153
7688, 134
7710, 145
6751, 6749
7139, 37
6754, 6752
7131, 33
7133, 34
7135, 35
7137, 36
6782, 6780
6785, 6783
7738, 159
2660, 2658
7085, 10
7730, 155
7736, 158
7734, 157
6580, 6578
8209, 201
8207, 200
8205, 199
8203, 198
8201, 197
7095, 15
8197, 195
7706, 143
7704, 142
7702, 141
7149, 42
7700, 140
7668, 124
7145, 40
6776, 6774
8195, 194
7141, 38
7708, 144
7143, 39
7548, 93
6733, 6731
7542, 90
7544, 91
7546, 92
8211, 202
8213, 203
7650, 115
7652, 116
7654, 117
7656, 118
7660, 120
7658, 119
7562, 100
7097, 16
7712, 146
7714, 147
7159, 47
7091, 13
7157, 46
7718, 149
7155, 45
8199, 196
7153, 44
7199, 66
7151, 43
7099, 17
7089, 12
7558, 98
8179, 186
7552, 95
7550, 94
7556, 97
7554, 96
7093, 14
8068, 175
8066, 174
7642, 111
7640, 110
7646, 113
7644, 112
6951, 6949
7648, 114
6779, 6777
7566, 102
7564, 101
7169, 51
8189, 191
8082, 182
7560, 99
8185, 189
7698, 139
8187, 190
7161, 48
8181, 187
7167, 50
7568, 103
7764, 172
7716, 148
7766, 173
7760, 170
7762, 171
6747, 6745
8078, 180
8173, 183
8175, 184
8177, 185
7580, 109
8072, 177
8183, 188
8074, 178
8076, 179
7175, 54
7177, 55
6948, 6946
7171, 52
7678, 129
6742, 6740
7676, 128
6942, 6940
7674, 127
7179, 56
6945, 6943
7570, 104
7572, 105
7574, 106
7576, 107
7203, 68
7578, 108
7201, 67
7077, 6
7071, 3
7205, 69
7073, 4
7670, 125
6025, 6023
7163, 49
6730, 6728
7101, 18
7103, 19
7105, 20
6736, 6734
7107, 21
7109, 22
7662, 121
7664, 122
7666, 123
6739, 6737
4586, 4584
8080, 181
7069, 2
7147, 41
7067, 1
6540, 6538
8191, 192
7742, 161
7189, 61
7740, 160
7746, 163
7744, 162
7075, 5
7181, 57
7748, 164
7183, 58
7185, 59
7187, 60
